<svg width="30" height="30" viewBox="0 0 30 30" fill="none" xmlns="http://www.w3.org/2000/svg">
<circle cx="22.9688" cy="22.9688" r="6.03125" stroke="white" stroke-width="2"/>
<circle cx="7.03125" cy="7.03125" r="6.03125" stroke="white" stroke-width="2"/>
<circle cx="7.03125" cy="22.9688" r="6.03125" stroke="white" stroke-width="2"/>
<circle cx="22.9688" cy="7.03125" r="6.03125" fill="white" stroke="white" stroke-width="2"/>
<path d="M19.6685 7.89218L22.7578 10.3316L26.5562 4.30481" stroke="#004C80" stroke-width="2" stroke-linecap="round" stroke-linejoin="round"/>
</svg>
