<svg width="30" height="30" viewBox="0 0 30 30" fill="none" xmlns="http://www.w3.org/2000/svg">
<mask id="path-1-inside-1_402_1653" fill="white">
<path d="M30 30V26.3333C30 24.3884 29.2098 22.5232 27.8033 21.1479C26.3968 19.7726 24.4891 19 22.5 19H7.5C5.51088 19 3.60322 19.7726 2.1967 21.1479C0.790176 22.5232 0 24.3884 0 26.3333V30"/>
</mask>
<path d="M30 30V26.3333C30 24.3884 29.2098 22.5232 27.8033 21.1479C26.3968 19.7726 24.4891 19 22.5 19H7.5C5.51088 19 3.60322 19.7726 2.1967 21.1479C0.790176 22.5232 0 24.3884 0 26.3333V30" fill="white"/>
<path d="M28 30C28 31.1046 28.8954 32 30 32C31.1046 32 32 31.1046 32 30H28ZM22.5 19V17V19ZM7.5 19V17V19ZM0 26.3333H-2H0ZM-2 30C-2 31.1046 -1.10457 32 0 32C1.10457 32 2 31.1046 2 30H-2ZM32 30V26.3333H28V30H32ZM32 26.3333C32 23.8433 30.9879 21.4646 29.2015 19.7179L26.4051 22.5779C27.4317 23.5817 28 24.9335 28 26.3333H32ZM29.2015 19.7179C27.4167 17.9727 25.0052 17 22.5 17V21C23.973 21 25.3769 21.5726 26.4051 22.5779L29.2015 19.7179ZM22.5 17H7.5V21H22.5V17ZM7.5 17C4.99476 17 2.58333 17.9727 0.798464 19.7179L3.59493 22.5779C4.62311 21.5726 6.02699 21 7.5 21V17ZM0.798464 19.7179C-0.987933 21.4646 -2 23.8433 -2 26.3333H2C2 24.9335 2.56829 23.5817 3.59493 22.5779L0.798464 19.7179ZM-2 26.3333V30H2V26.3333H-2Z" fill="white" mask="url(#path-1-inside-1_402_1653)"/>
<path d="M22 8C22 11.866 18.866 15 15 15C11.134 15 8 11.866 8 8C8 4.13401 11.134 1 15 1C18.866 1 22 4.13401 22 8Z" fill="white" stroke="white" stroke-width="2" stroke-linecap="round" stroke-linejoin="round"/>
</svg>
