<svg width="75" height="75" viewBox="0 0 75 75" fill="none" xmlns="http://www.w3.org/2000/svg">
<path d="M37.5002 73.509C57.3874 73.509 73.5091 57.3872 73.5091 37.5C73.5091 17.6128 57.3874 1.49103 37.5002 1.49103C17.613 1.49103 1.49121 17.6128 1.49121 37.5C1.49121 57.3872 17.613 73.509 37.5002 73.509Z" fill="#EF3C24" stroke="white" stroke-width="1.5" stroke-miterlimit="10"/>
<path d="M37.5006 39.8504C33.7586 39.8504 30.17 41.3369 27.524 43.9828C24.8781 46.6288 23.3916 50.2174 23.3916 53.9594H51.6095C51.6095 50.2174 50.1231 46.6288 47.4771 43.9828C44.8312 41.3369 41.2425 39.8504 37.5006 39.8504Z" fill="white"/>
<path d="M54.4311 39.8504C58.3254 39.8504 61.4823 36.6935 61.4823 32.7992C61.4823 28.9049 58.3254 25.748 54.4311 25.748C50.5368 25.748 47.3799 28.9049 47.3799 32.7992C47.3799 36.6935 50.5368 39.8504 54.4311 39.8504Z" fill="white"/>
<path d="M54.431 41.1074C52.6047 41.1117 50.8069 41.5611 49.1934 42.4169C52.2461 45.4928 53.9573 49.6519 53.9531 53.9856H65.6003C65.8304 52.3851 65.7135 50.7539 65.2576 49.2025C64.8016 47.6512 64.0174 46.2161 62.9579 44.9946C61.8985 43.7731 60.5888 42.7938 59.1175 42.1231C57.6463 41.4524 56.0479 41.106 54.431 41.1074Z" fill="white"/>
<path d="M20.5694 41.1074C18.955 41.1065 17.3592 41.4524 15.8901 42.1215C14.4209 42.7907 13.1126 43.7676 12.0536 44.9861C10.9946 46.2046 10.2097 47.6363 9.75188 49.1844C9.29408 50.7325 9.17408 52.3609 9.40002 53.9594H21.0407C21.0366 49.6257 22.7478 45.4666 25.8005 42.3907C24.1866 41.5451 22.3913 41.1047 20.5694 41.1074Z" fill="white"/>
<path d="M37.5002 37.5C42.0453 37.5 45.7299 33.8154 45.7299 29.2703C45.7299 24.7252 42.0453 21.0406 37.5002 21.0406C32.9551 21.0406 29.2705 24.7252 29.2705 29.2703C29.2705 33.8154 32.9551 37.5 37.5002 37.5Z" fill="white"/>
<path d="M20.5698 39.8504C24.464 39.8504 27.621 36.6935 27.621 32.7992C27.621 28.9049 24.464 25.748 20.5698 25.748C16.6755 25.748 13.5186 28.9049 13.5186 32.7992C13.5186 36.6935 16.6755 39.8504 20.5698 39.8504Z" fill="white"/>
</svg>
