<svg width="76" height="75" viewBox="0 0 76 75" fill="none" xmlns="http://www.w3.org/2000/svg">
<path d="M74.5025 37.5C74.5025 44.6219 72.3617 51.5839 68.3508 57.5055C64.3399 63.4272 58.639 68.0425 51.9691 70.7679C45.2992 73.4934 37.9598 74.2065 30.8791 72.8171C23.7983 71.4277 17.2943 67.9981 12.1893 62.9622C7.08439 57.9262 3.60789 51.5101 2.19944 44.525C0.790997 37.5399 1.51386 30.2997 4.27663 23.72C7.0394 17.1402 11.718 11.5163 17.7207 7.55963C23.7235 3.60292 30.7808 1.49103 38.0003 1.49103C47.6813 1.49103 56.9658 5.28482 63.8113 12.0378C70.6568 18.7908 74.5025 27.9498 74.5025 37.5Z" fill="#006667" stroke="white" stroke-width="1.5" stroke-miterlimit="10"/>
<path d="M59.576 55.858H16.8617C16.7658 55.858 16.6738 55.8204 16.6059 55.7535C16.5381 55.6866 16.5 55.5958 16.5 55.5012C16.5 55.4066 16.5381 55.3158 16.6059 55.2489C16.6738 55.182 16.7658 55.1444 16.8617 55.1444H59.576C59.6719 55.1444 59.7639 55.182 59.8317 55.2489C59.8996 55.3158 59.9377 55.4066 59.9377 55.5012C59.9377 55.5958 59.8996 55.6866 59.8317 55.7535C59.7639 55.8204 59.6719 55.858 59.576 55.858Z" fill="white"/>
<path d="M19.1846 43.5233H24.8922V55.4194H19.1846V43.5233Z" fill="white"/>
<path d="M29.9697 32.8909H35.684V55.4194H29.9697V32.8909Z" fill="white"/>
<path d="M40.7607 42.3841H46.4684V55.4194H40.7607V42.3841Z" fill="white"/>
<path d="M51.5459 37.4476H57.2535V55.4194H51.5459V37.4476Z" fill="white"/>
<path d="M22.0391 30.2131C21.3828 30.2131 20.7412 30.4051 20.1955 30.7648C19.6498 31.1245 19.2245 31.6357 18.9733 32.2339C18.7221 32.8321 18.6564 33.4903 18.7845 34.1253C18.9125 34.7603 19.2286 35.3436 19.6926 35.8014C20.1567 36.2592 20.748 36.571 21.3917 36.6973C22.0354 36.8236 22.7026 36.7588 23.309 36.511C23.9153 36.2632 24.4336 35.8437 24.7982 35.3053C25.1629 34.767 25.3575 34.1341 25.3575 33.4866C25.3575 32.6184 25.0079 31.7858 24.3855 31.1719C23.7632 30.558 22.9192 30.2131 22.0391 30.2131ZM32.857 19.4039C32.2007 19.4039 31.5591 19.5958 31.0134 19.9555C30.4677 20.3152 30.0424 20.8265 29.7912 21.4247C29.5401 22.0228 29.4744 22.681 29.6024 23.316C29.7304 23.951 30.0465 24.5343 30.5106 24.9921C30.9747 25.45 31.5659 25.7617 32.2096 25.888C32.8533 26.0144 33.5206 25.9495 34.1269 25.7018C34.7333 25.454 35.2515 25.0344 35.6162 24.4961C35.9808 23.9577 36.1754 23.3248 36.1754 22.6774C36.1754 21.8092 35.8258 20.9766 35.2035 20.3627C34.5812 19.7487 33.7371 19.4039 32.857 19.4039ZM43.6152 29.0739C42.9589 29.0739 42.3173 29.2659 41.7716 29.6256C41.2259 29.9853 40.8006 30.4966 40.5494 31.0947C40.2983 31.6929 40.2326 32.3511 40.3606 32.9861C40.4887 33.6211 40.8047 34.2044 41.2688 34.6622C41.7329 35.12 42.3241 35.4318 42.9679 35.5581C43.6116 35.6844 44.2788 35.6196 44.8851 35.3718C45.4915 35.124 46.0097 34.7045 46.3744 34.1661C46.739 33.6278 46.9336 32.9949 46.9336 32.3474C46.9336 31.4792 46.584 30.6466 45.9617 30.0327C45.3394 29.4188 44.4953 29.0739 43.6152 29.0739ZM54.4 24.157C53.7437 24.157 53.1021 24.349 52.5564 24.7087C52.0107 25.0684 51.5854 25.5797 51.3342 26.1778C51.083 26.776 51.0173 27.4342 51.1454 28.0692C51.2734 28.7042 51.5895 29.2875 52.0535 29.7453C52.5176 30.2031 53.1089 30.5149 53.7526 30.6412C54.3963 30.7675 55.0635 30.7027 55.6699 30.4549C56.2762 30.2072 56.7945 29.7876 57.1591 29.2493C57.5238 28.7109 57.7184 28.078 57.7184 27.4306C57.7184 26.5624 57.3688 25.7297 56.7464 25.1158C56.1241 24.5019 55.2801 24.157 54.4 24.157Z" fill="white"/>
<path d="M24.9858 30.8678C24.9139 30.8687 24.8434 30.8482 24.7834 30.809C24.7235 30.7698 24.6769 30.7137 24.6497 30.648C24.6225 30.5823 24.6159 30.5101 24.6309 30.4407C24.6459 30.3713 24.6816 30.308 24.7336 30.2589L29.824 25.3028C29.858 25.2701 29.8982 25.2444 29.9422 25.227C29.9863 25.2097 30.0334 25.201 30.0809 25.2016C30.1283 25.2023 30.1752 25.2121 30.2188 25.2306C30.2624 25.249 30.3019 25.2758 30.335 25.3093C30.3681 25.3429 30.3942 25.3825 30.4118 25.426C30.4294 25.4695 30.4382 25.5159 30.4375 25.5627C30.4369 25.6096 30.427 25.6558 30.4082 25.6988C30.3895 25.7418 30.3624 25.7808 30.3284 25.8135L25.238 30.7696C25.1702 30.8337 25.0796 30.8689 24.9858 30.8678Z" fill="white"/>
<path d="M40.934 30.3047C40.8434 30.3059 40.7556 30.2732 40.6885 30.2131L35.5516 25.5712C35.4812 25.507 35.4396 25.4177 35.4358 25.3232C35.4321 25.2287 35.4666 25.1365 35.5317 25.0671C35.5968 24.9976 35.6873 24.9565 35.7831 24.9528C35.8789 24.9492 35.9723 24.9832 36.0427 25.0474L41.1796 29.6893C41.2361 29.737 41.2761 29.8008 41.2942 29.8719C41.3123 29.943 41.3075 30.0179 41.2806 30.0863C41.2536 30.1546 41.2057 30.213 41.1437 30.2533C41.0816 30.2936 41.0083 30.3139 40.934 30.3113V30.3047Z" fill="white"/>
<path d="M46.8541 31.2934C46.7784 31.2878 46.7064 31.2586 46.6486 31.2101C46.5908 31.1615 46.5501 31.0961 46.5324 31.0233C46.5146 30.9505 46.5208 30.874 46.55 30.8049C46.5792 30.7357 46.6299 30.6775 46.6948 30.6386L50.564 28.7793C50.6076 28.7586 50.6549 28.7467 50.7031 28.7441C50.7514 28.7414 50.7997 28.7482 50.8453 28.764C50.8909 28.7799 50.9329 28.8044 50.9689 28.8362C51.0049 28.868 51.0342 28.9065 51.0551 28.9495C51.076 28.9925 51.0882 29.0391 51.0908 29.0867C51.0935 29.1343 51.0866 29.182 51.0706 29.227C51.0545 29.272 51.0297 29.3134 50.9974 29.3489C50.9652 29.3844 50.9262 29.4133 50.8826 29.434L47.0133 31.2934C46.9609 31.3051 46.9065 31.3051 46.8541 31.2934Z" fill="white"/>
</svg>
